{
    "https://api.shinyapps.io": {
        "server_url": "https://api.shinyapps.io",
        "filename": "/Users/taherzobeydi/Desktop/shiny-apps/shiny_map",
        "app_url": "https://taaher.shinyapps.io/your-app-name1/",
        "app_id": 11291407,
        "app_guid": null,
        "title": "your-app-name",
        "app_mode": "python-shiny",
        "app_store_version": 1
    }
}